<?xml version="1.0" encoding="utf-8"?>
<!-- Generator: Adobe Illustrator 18.1.0, SVG Export Plug-In . SVG Version: 6.00 Build 0)  -->
<svg version="1.1" id="Layer_1" xmlns="http://www.w3.org/2000/svg" xmlns:xlink="http://www.w3.org/1999/xlink" x="0px" y="0px"
	 viewBox="0 0 218.8 220.5" enable-background="new 0 0 218.8 220.5" xml:space="preserve">
<path fill="none" stroke="#BDA672" stroke-width="6.2109" d="M215.7,110.2c0,59.2-47.6,107.1-106.3,107.1
	c-58.7,0-106.3-48-106.3-107.1S50.7,3.1,109.4,3.1C168.1,3.1,215.7,51.1,215.7,110.2z M164.8,45.4c-8.7-5.4-15.2-7.8-25.5-7.8
	c-25.5,0-44,18.4-44,43.8c0,25.5,17.4,41.9,42.9,41.9c10.8,0,19.4-2.8,27.8-9.4l3,6.4h1.6V92.9h-2.3c-3.8,15-13.1,27.5-30.7,27.5
	c-22.3,0-37.1-20.1-37.1-39c0-18.8,15.2-40.9,37.7-40.9c14.6,0,26.5,9.8,28.6,23.6h2.9l-1-24.6h-1.9L164.8,45.4z M52,39.5h-1.9
	l-1,24.6H52c2.1-13.9,14-23.6,28.6-23.6c22.5,0,37.7,22.1,37.7,40.9c0,18.9-14.8,39-37.1,39c-17.6,0-27-12.5-30.7-27.5h-2.3v27.4
	h1.6l3-6.4c8.4,6.6,17,9.4,27.8,9.4c25.5,0,42.9-16.4,42.9-41.9c0-25.4-18.5-43.8-44-43.8c-10.3,0-16.9,2.4-25.5,7.8L52,39.5z
	 M166.8,181h1.9l1-24.6h-2.9c-2.1,13.9-14,23.6-28.6,23.6c-22.5,0-37.7-22.1-37.7-40.9c0-18.9,14.8-39,37.1-39
	c17.6,0,27,12.5,30.7,27.5h2.3v-27.4H169l-3,6.4c-8.4-6.6-17-9.4-27.8-9.4c-25.5,0-42.9,16.4-42.9,41.9c0,25.4,18.5,43.8,44,43.8
	c10.3,0,16.9-2.4,25.5-7.8L166.8,181z M54,175.1c8.7,5.4,15.2,7.8,25.5,7.8c25.5,0,44-18.4,44-43.8c0-25.5-17.4-41.9-42.9-41.9
	c-10.8,0-19.4,2.8-27.8,9.4l-3-6.4h-1.6v27.4h2.3c3.8-15,13.1-27.5,30.7-27.5c22.3,0,37.1,20.1,37.1,39c0,18.8-15.2,40.9-37.7,40.9
	c-14.6,0-26.5-9.8-28.6-23.6h-2.9l1,24.6H52L54,175.1z"/>
</svg>
